^C:\Users\Administrador\Downloads\Trabajo Practico 1\Ejercicio 1\Ejercicio 1.vcxproj
C:\Users\Administrador\Downloads\Trabajo Practico 1\x64\Release\Ejercicio 1.ipdb
C:\Users\Administrador\Downloads\Trabajo Practico 1\x64\Release\Ejercicio 1.iobj
^C:\Users\Administrador\Desktop\prog-graf-lopez\Trabajo Practico 1\Ejercicio 1\Ejercicio 1.vcxproj
C:\Users\Administrador\Desktop\prog-graf-lopez\Trabajo Practico 1\x64\Release\Ejercicio 1.ipdb
C:\Users\Administrador\Desktop\prog-graf-lopez\Trabajo Practico 1\x64\Release\Ejercicio 1.iobj
