^C:\USERS\ADMINISTRADOR\DOWNLOADS\TRABAJO PRACTICO 1\EJERCICIO 1\RELEASE\ENEMY.OBJ|C:\USERS\ADMINISTRADOR\DOWNLOADS\TRABAJO PRACTICO 1\EJERCICIO 1\RELEASE\MAIN.OBJ|C:\USERS\ADMINISTRADOR\DOWNLOADS\TRABAJO PRACTICO 1\EJERCICIO 1\RELEASE\PERSONAJE.OBJ
C:\USERS\ADMINISTRADOR\DOWNLOADS\TRABAJO PRACTICO 1\RELEASE\EJERCICIO 1.EXE
C:\USERS\ADMINISTRADOR\DOWNLOADS\TRABAJO PRACTICO 1\RELEASE\EJERCICIO 1.PDB
^C:\USERS\ADMINISTRADOR\DESKTOP\PROG-GRAF-LOPEZ\TRABAJO PRACTICO 1\EJERCICIO 1\RELEASE\ENEMY.OBJ|C:\USERS\ADMINISTRADOR\DESKTOP\PROG-GRAF-LOPEZ\TRABAJO PRACTICO 1\EJERCICIO 1\RELEASE\MAIN.OBJ|C:\USERS\ADMINISTRADOR\DESKTOP\PROG-GRAF-LOPEZ\TRABAJO PRACTICO 1\EJERCICIO 1\RELEASE\PERSONAJE.OBJ
C:\USERS\ADMINISTRADOR\DESKTOP\PROG-GRAF-LOPEZ\TRABAJO PRACTICO 1\RELEASE\EJERCICIO 1.EXE
C:\USERS\ADMINISTRADOR\DESKTOP\PROG-GRAF-LOPEZ\TRABAJO PRACTICO 1\RELEASE\EJERCICIO 1.PDB
